ID_Lattes	MATRICULA	NOME	CH	LP_1	PROGRAMA_1	CATEG_1	PROGRAMA_2	CATEG_2	Periodo_Inicio_1	Periodo_Fim_1	mail	Resp_prog	Prog_linha_1	Resp_LP1
3569470521730110	8198	Andre Felipe Henriques Librantz	40	Modelagem e Otimização de Sistemas e Processos	PPGEP	P			2013	2015	librantz@uninove.br	PPGEP		
5919942925510483	6589	Elesandro Antonio Baptista	40	Gerência da Produção	PPGEP	P			2013	2015	elesandro@uninove.br			
0382304490753424	6586	Fabio Henrique Pereira	40	Modelagem e Otimização de Sistemas e Processos	PPGEP	P			2013	2015	fabiohp@uninove.br			
9093695081597599	6989	Felipe Araujo Calarge	40	Sistemas Integrados de Melhoria da Qualidade em Processos	PPGEP	P			2013	2015	fcalarge@uninove.br		PPGEP	Sistemas Integrados de Melhoria da Qualidade em Processos
6815275032415719	13764	Fernando Tobal Berssaneti	40	Sistemas Integrados de Melhoria da Qualidade em Processos	PPGEP	P			2014	2015	fernandotb@uninove.br			
6721738988129342	6929	Geraldo Cardoso de Oliveira Neto	40	Gerência da Produção	PPGEP	P			2013	2015	geraldo.neto@uninove.br 			
0646085361798175	13716	Ivanir Costa	40	Modelagem e Otimização de Sistemas e Processos	PPGEP	P			2014	2015	ivanirc@uninove.br  			
0408226658529368	6499	José Carlos Curvelo Santana	40	Sistemas Integrados de Melhoria da Qualidade em Processos	PPGEP	P			2013	2015	jccurvelo@uninove.br			
2179657609596194	12991	Leonardo Junqueira	40	Modelagem e Otimização de Sistemas e Processos	PPGEP	P			2013	2015	leonardo.junqueira@uninove.br			
0921218077863198	7424	Milton Vieira Junior	40	Gerência da Produção	PPGEP	P			2013	2015	mvieirajr@uninove.br		PPGEP	Gerência da Produção
8750334661789610	7553	Renato José Sassi	40	Modelagem e Otimização de Sistemas e Processos	PPGEP	P			2013	2015	sassi@uninove.br		PPGEP	Modelagem e Otimização de Sistemas e Processos
1996533325699482	7246	Roque Rabechini Junior	20	Gerência da Produção	PPGEP	C	MPA-GP	P	2013	2015	roquejr@uninove.br			
9625205540823263	7408	Rosangela Maria Vanalle	40	Gerência da Produção	PPGEP	P			2013	2015	rvanalle@uninove.br			
2542529753132844	2386	Sidnei Alves de Araújo	40	Modelagem e Otimização de Sistemas e Processos	PPGEP	P			2013	2015	saraujo@uninove.br			
3756827815409780	10310	Wagner Cezar Lucato	40	Gerência da Produção	PPGEP	P			2013	2015	wlucato@uninove.br 			
